1134b36dcc21e64bee49ce6301bd6d95ca104da7a59d2913d8
db34a9f298b1114443659979cd38efaa911bdbbd9c26323e14
205988930e34d526690186d5d417f87e84b550508694566f79
0425af71aa2a37b5f6f71b1d4a73eaecbe39dd9d93065081dd
2121ebc22aeb6d528057b955e81e9fb1c1247fab9dc4e4902e
0981e90efa61bad3c2a94bb3fbdfa8a4e75e74f38bd380aa83
79ccdab31f77779c55fb865668edc8d3cb15df8b826e2cced4
17e86613029b16a3a930245629cfc0f86e2dc4aaef2f603e37
38e5c87adb709195f976a0d80e6ced3fc8c998df1c910d9c8e
81721160247d0451b4b13c3b5141282bf4fee7c683ea9cc427
bba77fe15b6b81cccedcde0f9fa0559bb0ca800c2e76bcefb4
2929abf6844436b09b8b75e72727b46873dcf7e8445291a1ad
c9bd7fc076dc1dc08c149708560bdfd46c998e40c695dac20f
4965dc78ca5fca355aecb9a21ff0247c09fa672473c17699dc
7b66f052fe0cac970a7cc59cb6d23625be9e1b0cd3de706b13
61ef011713daa1f764f6fcd354c3e62e307fe38cfc1dfed127
f8b04ae5f81a4b32f91d5d8000498d61ef7caecff3511c01dc
b37c6e94785c2233d19dec6bf3fef5b8c65324d4fda6960002
97c82a374d8a298a66d0d11d6c5d9565da8ba34221516dc42b
0871a152938c7965719c97d463c87990c08d6ee4e96b632b1b
84e720f6baf3626fb8b0ce4805ebde458e7dd6535b5e952bdd
bf2f2e9a1e0896891f4aa394e3b7c8e2a6349d33bcd66d141f
cad078bc2dd7e0288a415dd962c10226106cb92df100365c21
52f75ebaeee33ba6e18ce73a2473fb4017059d5d1ea9a8d9e7
1c2066798cf4b0ced2bdb77780158a83793a3f39fe62b25f1d
12e673f6b022bfecb15699ad9c4291d837e94d2f5b569240e9
d808545fff1c7973199bfec0bd3f4bcba5ea181034ace6db8e
151f0f1667d7b30357148c055a78d418b89c69af16dacbe2a4
f3461a78bda0a703f3963adca20614abfc93295475b727d26e
577e1789a8168b942560967259248ba7605a0a75e46df6bee2
710d054b6d6eb79878f0e94e3522f6e299fd8f3095788ee990
dca020224986ac2aa4026ca10559eef9688d11ce21ea6665d9
f8bbc792b637fbeadd4856554397a8eb307828c99d0c0f32aa
bf9e6f6202724662ffd44520f2f2ae22b8e42bdec85c4454ad
226916921e43a62fa70fe4af2f5c3d94c7e3850794a2bf2fdf
3c630c0a83ed3e6a248d08e4f133816bbe18b6dd3198cf029d
61f2014ae8fc062bb19ef2866ea1f6ed80ae045f866d21e8a6
ddfde28047f5c31810bcb83752bf8a18c34b77493a36645f08
24f615487f38b29d507f3aa4dea45c8e1150c1b3236dc4ec66
83b25d46657b0c747e4d142127024c11de05ed19ee163038c6
