4a6f69a31ccbd1a1b57abd67cd96df76311a89e8bc6d4ca901
debb92374c54b71d84f38aedd32efe79d7725be3bf8d827c8b
c8a3e569049780b63f7f07344d3468b118ef605aa222c86853
84360f9f477dd39678d548e7fe2aff94c58f90c723cc12f86a
68aaf79119fc96284a261613b8cbf6455b5a8ad522ff83e264
88ec1621b6fb699b38a548d9fff805cedb54837eebf6054a7a
d1762cf0cc9d8d35bd3ef8944b3abfc6b953e0d4ab147d8031
7a7bcbaf6778d563107d6b0fd0ec4ce1017bc7271d3a5a4827
773091dc48006c27d6dba6551a4ae8c096246d21c089a5f5ad
6b50e9222dc029ab282565ceb34303fd38c04ccb7c02d691f6
fcbde83cef99edd0687233cb2422eadfff5ddbbf3845ebc9f6
49870139332a5338064934c43ee13413f83dbe71a695da5e51
7de01d32a14454e494992d5c695bff18bc42cc34aec469536b
42f31ecfd019f9072cbcfba8d8aecc4c4404b33aee39ddf190
e71d108af4450b356b14a5ce996099ef820d83ea0ca19faaea
bdddc1ccd9cd3c4ab9d7fe06d9d81e41a46f65b5946bb97521
9dda9f092f6bff45e72a3fed72b251246086887ce763773ada
50c0b6beced112f353f02cecf73d9d7913fdaa96cbdb521b85
118ae6ec5074a6b602394f62417f0a811c1e2f56c6e4c58375
5bdb4c54ac5cab7a697cfa4e2ba7f1a73086807530bbf9e901
56baff9c81becaecc20e1320fcf977e61e51e33dbe2b2afdad
f5be10621123792a93a3414b44d70d7b2f945a3314f4979a34
bd57b9aa06eef0566670487d5dbb8d3afd2c25c34c3beeccb1
cfde03814837ded5f7e7a50449f38d2a45f54a6bb6045e9a00
24abc6953baad5f3e51bf727b477e0ecfc784d80fe0fdeb5fa
0fbb3023917d86f96f60bb60686e251aa02ea6e1bec1fefa59
e616d0bbbdd5f51e2f3ad369f2dc3d4f258587ad00722a461a
946b7039d32672e31c036f11091d1614a49bf5ef304e95903f
06337ad766b361772e5ae0d3c7e8b52c45e678892c26bbfa67
b137f8bff50b06222acc5ef45c1cf8b794c8c6124299839837
66350f6af6ce18be0c930110095f67bf44a8cb67f55d1b92ce
3323ad70450f91fa44bdccc044374c83a72635e68d3d765c05
ca1fd9fd46d83a82768fa5335510070fa7612537112188f888
b7014696248eea84dc2a8644a9eca51818a81795e8a1dc9a8c
6121762b48d4729d57b4695deb10a67870a7cb2146ed589882
0c5487a67b48289e65f7153813b43e5cf87cbfbdffde150101
3a2de19d66cb93ba6b831a91f1d2df2a21c6bacc633a0cd4d9
fb0df6045e8b177fb0f131a1490ee178d2526c604bc7467d66
f9551479f741a508000cb6357339523b3c54bc00cf86bbe972
5a9ff75f49096112354c555d7145aeb425e15e6d648296983a
