9e3b9c8e77df39830032573dac7b9a673bd04015e8567849ea
7024bcea9cdc3f12faf0c244a5c7e3369bf6ee19e2308f9a1b
0737530433eac273c201c9757416e5112c3b25649e876cc0eb
ff73484abbaea04a535a8d424d6e2b9513efebd6c3bc41f7ca
7f0ddfc276b140f0d6928b3803dabf6fef235f0140d915df71
3858e783fd605a07dc93870a51858e76c4dd41d90a606f999b
349844466798aa266f7b63b64c2c6ed74f335771cdefa8d7ad
79898aa2a17d2e5dffef9178f6cde3ce531d77d6c6740083d0
107531d86c56aff046145e4b5c2c98c5ea72daf00eb1d78ceb
382a3f14e96461ca5b6b2bfbf05c049ff6462a8565504f6626
ca175af8e9a0993c2b9bb03afb1ab4944fac5b429d56f9983a
26a2ae79a5e73b694b2985493ff76daa4f2d9534b3c3ba2961
05050c925680ec505c938ad8fc77fc09492a811b2a9f4f3103
955ec142f0ed26c4bd556d661c9b21d300ae00a4b4c1d39713
48b5f3fd6cbd425e77450761d6448ba55ebb9f92102a152f77
02a9385577e28427791bb98e844ad392007c57cf179db68ad3
dbd89485bb36c6712c687a186692e817206ae521f224957ff5
eeda4581cfcb3c86089bf28abbe5b1e58fc9ceb4a8c9773c2a
161a7366d52714ce54e5f9d1f509961e03627608354ed334fd
721d51b7d1467268f77a383075a7d4b594f6dfba855f5a57f8
2c536c455373155a3b4a31af254f12a15522e8a4e7ff1af094
ba84c1eb3832929e7a29072d880249d16c2adfca5e49788497
22b9057265c330de9fb8da2a1fe8e353b9b9199c732c994b38
f24a324bc68e50e02e6e8d6fcf30526954d6d30f7390fb2b49
3c4229a0d430b2ac0f42587cb91734adf5583b127f3fa96a18
f942307f1630df119bd7abfb3cefefbde38f77b625ca647739
949543b6a1657c64f7937734521ccb519ec770d48c4698e6c1
f75233613a74247035bac47bd1b263235b5fe1d255ba1a19fd
0ed873757bc28ab063570aa286d2975cb702d5b7d7d3e2d504
87f73aa7fdf50218382eacaf1b49557dd19de35d30d6aaf978
566b7cc3cac34a075f2f4ef543a53e3dc819d263e413fcae5a
cecc86018e97a5c80e1be7d972d01e6ab25916450ab7d0eac6
1ee1f544c8ee5d9d86536960253bd20b0e205ac3b3aa42f4ca
7ff83c1d34e633da70bfeb6bc5de225e7b213a6deece0e26a7
fdb38460af6825eabf59054f8279fb00843eb528d7f888a9e1
07a6fd9977fdb821cc49335c505bc875fd898a736343a94ce8
f66cf73951a9d49390d87476fc572d07c2725f05026fc1075d
c6ef2eeb9b738e52cf884f35b21d9b14d638fb232670865cb9
0d5ba4fac754ef506f2c472da847a4c42ca87ad3ec9303e42c
db19f720a7e8c0f30daf673595a9264d2e056b1bf14db96ef0
