aebef6b0a57cf8e31a410655ac99d2f20a8643f5ca4cbdf577
3308d6d4a2aa9b41d38e9a2f7fc917097ab53d44e809545cb7
b442798e24b6bc8685cbec03ec331ade0d68fd59299ffd8497
2506bd47f8ac7421d13693915ba7f59b1de4f67971550729af
d0e79728e0c84b419d96c9ca72f5f643d37700a4b5abb0edb9
e0bbed3efdb502f00c7c7e494d65b6cada0280944887754ce4
c4c71148117deabb9246adc2295fc6b44988eb4beb89038e22
bd618d02c434088c1bc65ab7f2fe9560002ed551726fb87c37
3fd9ed51ceaa7066496fc228c476dc51f95cdd5b42514d5d1c
4b24d39cbe84e0df6ea065a51370a38a39fba52fc17cebb3f4
LES MOOCS SUR FUN SONT TROP FUN   
9150a6e89225298a2ffd215b2f6017f12074c7412dcfdfbc5c
282e5ce9780dd876f9571e23857757454be3056450d2398af6
0e27b700ee0e8e9f75aab548d30e394b5a1fb4d339c93a0b0f
d3b27cda0c73afc90cfacc553e22077a9c59cecec78d8d856e
dbc265f6fe3f025e736118e434c693b4a93a0a3d1ff975c2eb
4754f1975ceb7b6ba19f74268d19baf9d94201726e04c48e20
a0a78646d6cbf781531ff705f33733276b627dfbaad9ff82f1
7841b154068b23411a9767357fe9cc637462d63abea6dd8859
f089d34d46bdb99be161e8d1602f57a39c98694365ec8b25a5
2079da145d3c4b3f76deca124846eef5466404fcc0a3e8615
